"¿Qué impresión general te ha dado nuestra publicación? Evalúa, por favor:",¿Cómo te describirías como lector?  ,¿Cómo te describirías como lector?   [Comentario],¿Con qué frecuencia lees las siguientes secciones/temas de nuestras ediciones? [Frase/Canción/Intro],¿Con qué frecuencia lees las siguientes secciones/temas de nuestras ediciones? [ Herramientas de software],¿Con qué frecuencia lees las siguientes secciones/temas de nuestras ediciones? [Informes/encuestas],¿Con qué frecuencia lees las siguientes secciones/temas de nuestras ediciones? [Seguridad],¿Con qué frecuencia lees las siguientes secciones/temas de nuestras ediciones? [Noticias/Enlaces técnicas],¿Con qué frecuencia lees las siguientes secciones/temas de nuestras ediciones? [Noticias/Enlaces sociales/filosóficos],¿Con qué frecuencia lees las siguientes secciones/temas de nuestras ediciones? [Género/El deseo de cambiarlo todo],¿Con qué frecuencia lees las siguientes secciones/temas de nuestras ediciones? [Audios/Entrevistas],Nivel de actualización y utilidad de los temas y contenidos,Nivel de actualización y utilidad de los temas y contenidos [Comentario],¿Le das prioridad en relación a lo que lees en internet habitualmente?,¿Le das prioridad en relación a lo que lees en internet habitualmente? [Comentario],¿Recordas algun articulo o idea en particular?  ,¿Cuán comprensible es lo publicado?,¿Abre puertas a temas no conodidos anteriormente?,¿Abre puertas a temas no conodidos anteriormente? [Comentario],¿Trasmite valores de la cooperativa?,¿Trasmite valores de la cooperativa? [Comentario],¿Despierta algunas emocioneso reflexiones?,¿Despierta algunas emocioneso reflexiones? [Comentario],¿Recomendarias a otras coops o personas?,¿Recomendarias a otras coops o personas? [Comentario],¿Tienes algunas sugerencias en qué podemos mejorar?
,,,,,,,,,,,,,,,,,,,,,,,,,
4,80% - Suelo leer la mayoría de las cosas,En general no leo todo lo que está disponible en el ezine porque muchas cosas son relacionadas a desarrollo y ese no es mi expertise. Igual me gusta que haya secciones y siempre me quedo con alguna idea dando vueltas en la cabeza.,Siempre,A menudo,A menudo,Siempre,A menudo,Siempre,Siempre,Ocasionalmente,Satisfecha,"Una de las cosas que más me gustan del ezine es que aunque los enlaces a los contenidos no sean ""actuales"" cronológicamente los debates siempre lo son.",No,"Lo que leo en internet por lo general está relacionado estrictamente a mi desempeño técnico-laboral, entonces suelen ser cosas que busco específicamente para resolver un problema.  Lo que sí priorizo son los enlaces más ""filosóficos"".","El artículo sobre lo la salvación de lo bello donde se resumían perspectivas de un filósofo coreano vs. otros filósofos ""canónicos"" de la estética (Gadamer, Barthes, etc.)",Habitualmente comprensible,Si,Personalmente me abre la puerta a temas que tal vez conozco pero con perspectivas que nunca había considerado.,Si,"Me parece que sí porque en general adoptan una perspectiva crítica respecto de las herramientas y a la vez buscan estar ""al día"" con avances en el tipo de tecnologías que se usan para desarrollo.",Si,Siempre me conmueve la frase/fragmento de apertura.,Si,Creo que es un producto que debería estar disponible de manera abierta en internet para compartir.,"En caso de publicarse tal vez sería importante que en lugar de un titular y un enlace se desarrolle al menos una ""bajada"" (en sentido periodístico gráfico) o párrafo de síntesis porque cambiaría el ""público objetivo""."
5,80% - Suelo leer la mayoría de las cosas,"El contenido de la revista lo leo todo, pero los links a discreción de mi interés/curiosidad",Siempre,Siempre,Siempre,Siempre,A menudo,A menudo,A menudo,Ocasionalmente,Totalmente satisfecha,,Sí,"Si, el ezine lo leo de manera regular dedicandole un espacio de tiempo mensual. El resto de las cosas las leo de manera eventual, cuando me topo con algo que me interesa.",El análisis de la developer survey de stack overflow,Habitualmente comprensible,Si,"Si, por ejemplo el libro de tendencias en frontend 2019 nos sirvió como fuente para armar la capacitación de Maquetación.",Si,"Si, hay bastantes notas en relación a eso.",Si,"Si, más de una vez me sentí interpelado por los textos en la sección ""Más sociales""",Si,"Si, estaría bueno tenerlo publicado para poder compartirlo con facilidad","Trataría de incluir siempre en los links un epígrafe que sirva como invitación al lector a introducirse en el tema.

"
5,20% - No leo casi nada,"Me resulta interesante pero casi no cuento con el tiempo de leer detalladamente. Y al ser un link ""interno"" de Camba no suelo acceder desde mi hogar.",Siempre,A menudo,A menudo,Ocasionalmente,A menudo,Ocasionalmente,Ocasionalmente,Nunca,Satisfecha,,No,No suelo leer muchos articulos por fuera tampoco porque no cuento con el tiempo.,,Siempre comprensible,Si,,Si,,Si,,Si,,
,,,,,,,,,,,,,,,,,,,,,,,,,
5,40% - Leo solamente algunas cosas,Hay cosas que a veces no comprendo  que siento que me falta nivel técnico como para poder entenderlas.,A menudo,A menudo,A menudo,Siempre,Ocasionalmente,A menudo,A menudo,Siempre,Satisfecha,,Sí,,"Sin pensarlo mucho creo que recuerdo sobre las últimas más que nada. Recuerdo el proyecto que te va leyendo los gestos mientras mirás un video, la encuesta de sueldos y lo del lenguaje de programación argento onda python",Habitualmente comprensible,Si,Me parece que esta bueno para que todes tengamos temas en el radar. ,Si,Socializa conocimientos y el estado del arte.,Si,Dependiendo del contenido si. ,Si,Me parece que aún hay que ponerle una capa para poder compartirlo. pero esta buenísimo.,A veces hay algunos repos publicados que no entiendo bien qué hacen. Me gustaría que los enlaces tengan una descripción un poco más elaborada para poder entender mejor.
5,80% - Suelo leer la mayoría de las cosas,"Suelo leerla entera, pero solamente profundizo en los links específicamente técnicos. Salvo algún que otro artículo de géneros, del cual una vez me base para comprar algunos libros.",Siempre,Siempre,A menudo,Siempre,Siempre,A menudo,A menudo,Ocasionalmente,Totalmente satisfecha,"Estoy de acuerdo en la mensualidad de las publicaciones, al menos, personalmente, me aporta un valor agregado de expectativa y &quot;manija&quot;.",Sí,"Si, es un insumo que considero de interés intelectual personal, porque noto que está motivado por valores parecidos a los que llevo día a día.","La cita a la tesis de Belén, el video con machine learning, la encuesta global de personas que trabajan en la industria de software, con estadísticas (una de las primeras publis); y las contribuciones a software libre",Habitualmente comprensible,Si,"En particular, aquellos artículos referidos a género que leo salen de las publis. En ese sentido noto me informo acerca del tema por lo que encuentro en el zine.",Si,A juzgar por el contenido no podría pensar que no transmite valores de la coope. De lo que estoy segurx es que no atenta contra ellos en medida alguna.,Si,"Algunas de las canciones de las portadas me hacen acordar a la adolescencia. La mezcla entre tecnología, poesía, filosofía es el factor que le aporta identidad a éste material, y me parece que esa identidad es una idea formada de uno, que puede o no caracterizarse con la de otrxs. Pero al fin y al cabo, si alguien se identifica con éste material, es la prueba de que algo dentro de esa persona se mueve. Tiene nombre esa emoción? No creo, pero tampoco creo que haya que ponerle nombre a los sentires.",Si,"Claramente. Apoyo la idea de abrirlo a otros espacios, empezando por aquellos entornos conocidos: FACTTIC.","Definitivamente abrirla por fuera de Cambá, empezando por sectores que consideremos de interés.
Quizás agregar más entrevistas? con socies?"
5,80% - Suelo leer la mayoría de las cosas,Lo que me pasa es que muchas veces leo dos o tres iteraciones juntas.Principalmente los últimos 3 meses del año me costo seguir el mes a mes.,Siempre,Siempre,A menudo,Siempre,Siempre,Siempre,Siempre,Ocasionalmente,Totalmente satisfecha,Muchas veces esta por encima de mis posibilidades o conocimientos en lo actual.,Sí,"Si,particularmente en lo propio de nuestra tarea suele ser la referencia.En los otros temas es otra fuente recurrente.En el debe ","Recuerdo el video de Dario Z , ademas de un documental que me llamo mucho la atención.De las técnicas recuerda las de la nuevas versiones de Vue, de los comandos de bash nuevos,si mal no recuerdo alguna de React.
Ademas leí la de Unicorn Grocery ,una nota de Ten Pines ,un texto sobre coordinación vs conducción .
",Habitualmente comprensible,Si,"Si, a mi principalmente en lo tecnico , de las herramientas generales que uso, me sumo mucho. Y me genero un backlog de cosas para investigar.
Las notas no tecnicas me sumaron para conocer perspectivas/profundizar en algunas cosas que ya me interesaban de por si",Si,"Creo que con las noticias sobre soft libre ,cooperativismo estan reflejados nuestros valores.No se me ocurre una publicación mas afin que la producida por nosotrxs mismos  ",Si,"Principalmente a mi me interpelaron las que son experiencias en otras empresas con logica afines, ver como encarabamos nosotros y comparar.Otra cosa que me suma tambien  que me gusta es cuando algunx compañerx (tanto sea desde la CTTE o de otro espacio)produce un texto para lxs demas ",Si,"Me parece que estaria re copado apenas podamos retomar lo de vue-press,para poder compartirla,inclusive tambien esto podria generar que otrxs quieran crear/compartir contenido","Creo que lo de compartir a mas publico sumaria nuevas voces, en caso que sucede eso, ademas podria ser el puntapie para debates,etc.
Una seccion que se le podia agregar seria lxs lectores que hagan algun actividad artistica(musica,dibujen,etc) se publica una obra por mes de unx autor distintx"
5,80% - Suelo leer la mayoría de las cosas,"La revista la leo toda, entro a todos los links, pero no siempre me tomo el tiempo necesario para analizar bien el contenido de los links. Por ejemplo, cuando se comparten repositorios, suelo mirarlos por encima.",Siempre,A menudo,A menudo,A menudo,A menudo,A menudo,A menudo,A menudo,Satisfecha,,Sí,"Priorizo estas lecturas, porque entiendo que detrás tienen un trabajo de investigación apuntando a que me resulten enriquecedoras. Con priorizarlas me refiero a que me guardo los links que me resultan mas interesantes y los leo en el viaje =)","si, esta frase la tengo muy presente: ""Mi libertad entonces consiste en moverme en un entorno delimitado que me asigne a mi mismo
para cada una de las cosas de hago. Es más, mi libertad será mayor y más significativa cuanto
más límites al campo de acción y más obstaculos tenga que sortear. Cualquier cosa que disminuya
las restricciones también hacer disminuir la fuerza. Cuanto más restricciones uno se impone,
más uno se libera de las cadenas que atán al espíritu.""",Habitualmente comprensible,Si,Me tocó profundizar en temas que ya manejaba y lo hice con los links de diferentes ezines.,Si,"La frase que mas recuerdo habla de la libertad particularmente, además de esto siempre se promueven las lecturas feministas y se realizan análisis al respecto del mismo tema. Y se resaltan las contribuciones al software libre.",Si,Recuerdo una entrevista a Pepe Mujica que me resultó muy conmovedora,Si,Creo que sería un gran aporte para FACTTIC. Porque tenemos un buen avance en discusiones de género y la importancia de la soberanía de plataforma.,"Sería muy útil tener centralizados los links, agrupados por sección. Es decir, si necesito encontrar el link 'críticas a la sociocracia', en lugar de recordar la frase que decribe el enlace y que se publicó en julio de 2019, ir a 'Más sociales' y encontrarlo."
5,80% - Suelo leer la mayoría de las cosas,No escucho los audios de la oveja electronica. Prefiero leer en general,Siempre,Siempre,Siempre,Siempre,Siempre,A menudo,Siempre,Nunca,Totalmente satisfecha,La amplitud de temas esta buenisima,Sí,"No entiendo bien la pregunta, preo siempre que sale trato de leerla lo antes posible","Encuestas de salarios, el estado de js, alguna frase de confucio, publicaciones de mozilla sobre web usb y haveibeenpwned",Siempre comprensible,Si,"Si, tanto tecnicos como sociales y filosoficos",Si,El conocimiento libre a full. Pero haria falta poder compartirla con gente externa a la coope,Si,Las notas sobre los problemas sociales de la industria del software y los articulos de genero dan mucho que reflexionar,Si,De una. Lo compartiria en mis redes sociales y haria circular por Facttic,"Estaria bueno que haya alguna pieza de arte que encabece cada publicacion, sea producida por socies de camba o extraida de internet. Seria un broche de oro para una revista que de por si esta muy muy buena."
,,,,,,,,,,,,,,,,,,,,,,,,,
4,80% - Suelo leer la mayoría de las cosas,"Leo las cosas que me interesan. En general, abro en las pestañas el contenido sugerido pero voy cerrando a medida que veo que la info puede interesarme o no. ",Siempre,Ocasionalmente,A menudo,Ocasionalmente,Ocasionalmente,Siempre,Siempre,Siempre,Satisfecha,,Sí,,La entrevista a Anita antes de que ella sea parte de la coope. Fue re interesante. ,Habitualmente comprensible,Si,,Si,,Si,,Si,De hecho creo que deberíamos publicarla o mandarla como newletter de la coope. ,La participación activa de la coope para ampliar las miradas y las palabras. 
5,40% - Leo solamente algunas cosas,"Tengo una carpeta especifica que tiene todos los links de ezine (a veces me cuesta encontrarlo via wiki)
No llego a leer todo, pero marco y a veces dejo en marcadores para otros proyectos o ideas lo que sale del ezine.
Por lo general leo los temas más politicos-tecnologicos, reflexiones y más creativos. Me gusta cuando viene con música. No miro tanto herramientas especificas de lenguajes, excepto las tendencias.",Siempre,Ocasionalmente,A menudo,Siempre,A menudo,Siempre,A menudo,Nunca,Satisfecha,"Acá es percepción, no podria decir que falta para estar  en el 100% de satisfacción",Sí,"En internet, leo muy especificamente algunas cuentas y sitios que tengo en mis marcadores.
Por lo general me informo ad-hoc y cada cuatro meses reviso un paneo completo de esos marcadores.
Casi siempre leo más libros que online. ","Encuestas de sueldos, encuesta stackoverflow, el aporte de nati, smartmatic en el tema de votacion, la gorra, preguntas de tecnologia.
Lo de bifo, zizek recortes de booom boom kid, duelo de maquina y humano",Habitualmente comprensible,Si,"Siento que profundizo, sobre todo.",Si,"Capacitación, compartir el conocimiento. Creo que es una expresión de lo que significa la ctte para la cooperativa: una mirada sobre aspectos de innovación y conocimiento que no siempre tenemos tiempo de profundizar nosotres. Poder sistematizar eso es excelente, porque en cierto punto es el contexto de nuestro ser cooperativo.",Si,"Si. Creo que las otras preguntas explican un poco lo que me genera el ezine. Un gran deseo de seguir aprendiendo y profundizando mi formación. 
A veces también me da ganas de charlar más con josx y otros asociades de estos temas o debatirlos con él, aunque no siempre puedo.",Si,"Lo llevaria por el mundo, en formato papel y digital, para repartir siempre y mostrar esta maravilla.","Creo que seria genial tener una obra artistica visual acompañando cada mes, invitar a alguien a hacer, o formatos estilo 
https://www.hotglue.me/ 
https://celestelerouxel.hotglue.me/
https://www.behance.net/gallery/60851319/MATADORA
https://www.behance.net/gallery/27019607/Digital-Detox-Day"
5,40% - Leo solamente algunas cosas,"Generalmente me intereso más por la sección de 'Aportes a proyectos de Software libre' y la sección en la que nombran nuevos proyectos de SL o proyectos que van tomando cierta importancia dentro de la industria. Al resto de las secciones les pego una ""ojeada"" más que nada para tomar mucho tiempo del tiempo de productividad en Cambá, luego, en mi casa, me olvido y no leo el resto del ezine.",Siempre,Siempre,A menudo,Ocasionalmente,Siempre,Ocasionalmente,Ocasionalmente,A menudo,Satisfecha,Me intereso mucho por la parte técnica aunque sé que no debería encasillarme y leer más las secciones filosóficas y sociales.,No,"Generalmente, lo ""leo"" inmediatamente cuando se manda el mail avisando que salió de la ezine.",,Siempre comprensible,Si,,Si,,no,,Si,,"No tengo idea de alguna manera de mejorar los contenidos actuales de la ezine; tal vez, agregaría una sección no tan relacionada a la tecnología y que cuente algo sobre Cambá (alguna anécdota o cooperativismo en general) como para descontracturar."
4,40% - Leo solamente algunas cosas,"Suelo leer todo lo social y algunas cosas tecnológicas (no tanto las estadísticas y lo más específico). Pondría un 50% o 60% como lectora, pero de las opciones que hay creo que me refleja más el 40% que el 80% (sobretodo porque el contenido es mayormente tecnológico).",Siempre,Nunca,Nunca,Ocasionalmente,Ocasionalmente,Siempre,Siempre,Ocasionalmente,Satisfecha,,No,"No, suelo leer cosas en internet también. Creo que una no excluye la otra.","Por lo general la frase musical del principio, en todas es la que me deja pensando y analizándola, creo que todas tienen el mismo espíritu libertario o están emparentadas con la conyuntura que vive la coope en ese momento, eso está bueno.
",Habitualmente comprensible,Si,Si en ocaciones temas no conocidos. Y en ocaciones autorxs desconocidos sobre temas ya conocidos.,Si,,Si,"La parte que leo, siempre.",Si,,"Lo que salió en la última jornada es interesante. Creo que como en todo lo que hacemos sería interesante una voz más colaborativa (para que no quede en pensamientos individuales). Se me ocurre por ejemplo que haya una sección que sea colaborativa y armar comisiones de 3 o 4 personas por mes (siempre distintas) que colaboren con el contenido de esa sección, así siempre aparecería la voz del colectivo."
4,40% - Leo solamente algunas cosas,"Solo leo algunas cosas creo que es porque, muchas cosas no me llaman la atención y no entro a leerlas. ",Nunca,A menudo,Ocasionalmente,Ocasionalmente,A menudo,Nunca,Ocasionalmente,Nunca,Medianamente satisfecha,Lo que pasa es que muchas veces son temas  que ni conozco y no me llaman la atención. En otro casos ai.,Sí,,,Habitualmente comprensible,Si,,Si,,Si,,Si,"Si creo que muchas personas deben estar interesadas por tener algo asi.
Creo que no solo deberia quedar en camba ya que es un gran trabajo que se hace.","Quizás es algo mas personal pero más temas con las tecnologías que venimo trabajando en la cooperativa o herramientas que podamos usar en los proyectos. 

"
5,80% - Suelo leer la mayoría de las cosas,"Hay cosas que no con de mi interés como para profundizar. 
Algunas las leo igual..",Siempre,Siempre,A menudo,A menudo,A menudo,A menudo,A menudo,A menudo,Totalmente satisfecha,"Suelo sorprenderme y pensar que si yo tuviese que compilar la información, seleccionarla, filtrarla, etc.. me llevaría dos meses por mes. ",Sí,Tampoco soy une lectore efusive de le internete,"Me lo contaron y
lo olvidé; lo vi y
lo entendí; lo hice y
lo aprendí
",Habitualmente comprensible,Si,"En mi caso, (rol no técnico) es una ventana a muchas cosas nuevas.
Cosas no conodidas con anterioridad ;)",Si,"Los temas, los personajes que aparecen, las cosas que se resaltan sobretodo social y filosóficamente, son muy de nuestro riñón. ",Si,"Ambas. 
No se queda en la lectura a nivel interés de la cooperativa para ser más competitiva.. sino que invita a las personas a preguntarse por su presente y su futuro, como miembros de la coope y del mundo en gral. ",Si,Ahora me pregunto porqué aún no lo hice? no es abierte?,Algunas cosas ya hablamos.. y hubo buena recepción.. sigamos por esas líneas.. 
5,80% - Suelo leer la mayoría de las cosas,,Siempre,A menudo,Siempre,Siempre,A menudo,Siempre,Siempre,Ocasionalmente,Totalmente satisfecha,Es muy completa!,No,"No tengo internalizada todavia la lectura de la Ezine, algunos meses no la leo y la leo despues.",,Siempre comprensible,Si,"en mi caso, sobre todo en lo tecnico.",Si,"software libre, debate politico y género creo que dan un pantallazo de nuestra busqueda.",Si,,Si,,"la interfaz gráfica, pero creo que ya se esta trabajando en eso..."
5,80% - Suelo leer la mayoría de las cosas,Suelo ir leyendo los artículos durante el día que sale la publicación.,Siempre,Siempre,Siempre,Siempre,Siempre,A menudo,A menudo,Ocasionalmente,Satisfecha,"Siempre se puede pedir mas, pero generalmente estoy satisfecho con los contenidos publicados.",Sí,"Si por supuesto, al estar seleccionado para nosotres creo que esta buenísimo prestarle atención.",Me gusta mucho leer los aportes de software libre de nuestres compañeres.,Siempre comprensible,Si,"Si bien la mayoría de los temas están relacionados a lo que hacemos habitualmente, siempre hay algunos artículos que disparan ciertas inquietudes respecto a temas específicos. ",Si,"Entiendo que si, o por lo menos siento que es una de la finalidades del ezine.",Si,"Esto depende del lugar en que lo lea cada une, mas allá de lo técnico.",Si,Esta buenísimo siempre y cuando no ocupe demasiado tiempo de otres compañeres. ,Creo que podríamos pensar en una forma cooperativa de armarlo sin que quite tanto tiempo de un compañero nuestro.
5,40% - Leo solamente algunas cosas,"Veo que es lo que mas me interesa o me llama la atención. Algunas cosas cortas las leo en el momento, otras intento recordar para leerlas en horario fuera de la ofi, a veces me acuerdo y a veces no.",Ocasionalmente,A menudo,Ocasionalmente,Ocasionalmente,A menudo,Ocasionalmente,A menudo,Ocasionalmente,Satisfecha,Creo que es muy interesante y variado el contenido.,Sí,Intento.,no.,Habitualmente comprensible,Si,Creo que siempre hay algo nuevo.,Si,,Si,,Si,,
5,80% - Suelo leer la mayoría de las cosas,"Siempre leo las partes que me parecen interesantes, hasta ahora siempre hubo alguna sección que me interese. Además, suelo marcar las partes que quiero seguir profundizando para continuar después. 
No suelo volver a ver las ezines una ves ya la leí.",Siempre,A menudo,Ocasionalmente,Ocasionalmente,Ocasionalmente,A menudo,Ocasionalmente,Ocasionalmente,Satisfecha,"No estoy seguro sobre el nivel de actualización.
Sobre la utilidad, veo las ezines como algo de interés general y que el contenido que aparece tiene que desprender curiosidad a la persona que las lee. En ese sentido, me parece que está cumpliendo su objetivo.
En cuanto a los contenidos, creo que el formato encuadra muy bien al contenido que estamos viendo. En particular, me gusta cuando se muestra la mirada de unx sobre los temas expuestos. Quizá, falte que esto pasé en todos los temas.",Sí,"En general, trato de leer las ezines de corrido, si no puedo en el momento ni siquiera la empiezo a leer. Sobre la importancia, creo que sí le doy más importancia, sobretodo porque veo el esfuerzo que conlleva hacerlas.","Si, me acuerdo de algunos articulos de Grabois, el primero creo que fue en Agosto y el segundo en Septiembre. Uno era una entrevista, esa me pareció genial porque fue una forma de seguir conociendo lo que es la figura de un referente en el mundo de la economia popular. La segunda, no me acordaba bien, era un extracto sobre el libro ""la clase peligrosa"", esto me dió curiosidad de leer el libro, aunque no pude concretarlo.
Otros articulos que me parecen buenisimos son los filosóficos, me acuerdo el concepto de libertad de Espinoza, pero hubo otros extractos que también me gustaron.",Habitualmente comprensible,Si,"Si, en mi caso me interesan mucho los artículos filosóficos, pero no soy un experto ni tengo mucho conocimiento sobre esto, por lo que varios de los extractos me sirvieron de guia para luego investigar por mi cuenta. ",Si,"Un millón de sii, desde las secciones en las que aparecen nuestras contribuciones al software libre, las reflexiones filosóficas sobre el feminismo y la realidad o sociedad en que vivimos, hasta los artículos ""técnicos"" o cualquiera de información general, que mejoran nuestras capacidades de autogestión.",Si,"Siempre que veo algo nuevo o interesante, me hace reflexionar sobre cuáles son mis ""gustos"" o cuál es mi abanico de conocimiento. En general, los articulos nuevos(nunca habia escuchado o que sé poco) son los que intento prestarle más atención.",Si,"Sii, varios de los temas que aparecieron las ezine los terminé recomendando.","Sugerencias, 
- Tenemos que participar en la producción. Creo que podemos publicar en alguna sección las capacitaciones que hacemos, por ejemplo las técnicas.
- Hacer resúmenes o puntos de vista de todos los temas que se hablan en la ezine, como se hace en la sección de filosóficos. Algo que me parece genial de los articulos filosóficos, es que siempre se cuenta desde una perspectiva, o por la traducción hecha por unx mediante algún fragmento/resumén de un tema pero no pasa lo mismo con los artículos técnicos, o con las encuestas/estadísticas que aparecen, creo que esto le daría una forma más heterogénea, y además le daría más valor a esas secciones, en definitiva para no tener que mirar un artículo entero en otra plataforma, aún así siempre está bueno dejar la referencia. Entiendo que esto es muy particular, y que implementarlo llevaría mucho más trabajo."
